# Blender MTL File: 'palmtree (3).blend'
# Material Count: 7

newmtl BoulderGray
Ns 96.078431
Ka 0.000000 0.000000 0.000000
Kd 0.121856 0.121856 0.121856
Ks 0.500000 0.500000 0.500000
Ni 1.000000
d 1.000000
illum 2

newmtl CoconutBrown
Ns 96.078431
Ka 0.000000 0.000000 0.000000
Kd 0.078800 0.043319 0.032167
Ks 0.500000 0.500000 0.500000
Ni 1.000000
d 1.000000
illum 2

newmtl IslandStone
Ns 96.078431
Ka 0.000000 0.000000 0.000000
Kd 0.800000 0.769866 0.447838
Ks 0.500000 0.500000 0.500000
Ni 1.000000
d 1.000000
illum 2

newmtl None
Ns 0
Ka 0.000000 0.000000 0.000000
Kd 0.8 0.8 0.8
Ks 0.8 0.8 0.8
d 1
illum 2

newmtl PalmTrunkBrown
Ns 96.078431
Ka 0.000000 0.000000 0.000000
Kd 0.202349 0.094467 0.041915
Ks 0.500000 0.500000 0.500000
Ni 1.000000
d 1.000000
illum 2

newmtl PlamLeafGreen
Ns 96.078431
Ka 0.000000 0.000000 0.000000
Kd 0.228911 0.640000 0.047563
Ks 0.500000 0.500000 0.500000
Ni 1.000000
d 1.000000
illum 2

newmtl PlamLeafGreenDark
Ns 96.078431
Ka 0.000000 0.000000 0.000000
Kd 0.162130 0.447672 0.034810
Ks 0.500000 0.500000 0.500000
Ni 1.000000
d 1.000000
illum 2
